    4046.565    3     4.000e-01
    4077.837    3     1.000e-01
    4916.070    1     3.000e-02
    4358.335    3     5.000e-01
    5460.750    3     3.000e-01
    5769.610    3     4.000e-01
    5889.953    3     1.500e+00
    5895.923    3     1.500e+00
